id	名称	道具类型	资源id	功能参数(如果有多项参数，则以逗号隔开)
0	钻石	0	0	10
1	青铜星金币	1	1	0,10000
2	白银星金币	1	2	1,20000
3	黄金星金币	1	3	2,30000
4	青铜星技能点	2	4	0,10
5	白银星技能点	2	5	1,20
6	黄金星技能点	2	6	2,30
7	金币加成x2	3	7	2
8	金币加成x4	3	8	4
9	金币加成x10	3	9	10
10	青铜星金币瞬时获取	4	10	0,60
11	白银星金币瞬时获取	4	10	1,120
12	青铜星金币瞬时获取	4	10	2, 180
13	载具加速	5	11	
14	宝箱	6	12	
