%YAML 1.1
%TAG !u! tag:unity3d.com,2011:
--- !u!21 &2100000
Material:
  serializedVersion: 6
  m_ObjectHideFlags: 0
  m_CorrespondingSourceObject: {fileID: 0}
  m_PrefabInternal: {fileID: 0}
  m_Name: LightningBoltMaterialMeshNoGlow
  m_Shader: {fileID: 4800000, guid: fc4719221f275e64490b001539c9ea4a, type: 3}
  m_ShaderKeywords: 
  m_LightmapFlags: 5
  m_EnableInstancingVariants: 0
  m_DoubleSidedGI: 0
  m_CustomRenderQueue: -1
  stringTagMap: {}
  disabledShaderPasses: []
  m_SavedProperties:
    serializedVersion: 3
    m_TexEnvs:
    - _GlowTex:
        m_Texture: {fileID: 0}
        m_Scale: {x: 1, y: 1}
        m_Offset: {x: 0, y: 0}
    - _MainTex:
        m_Texture: {fileID: 2800000, guid: 51e598d31382bd740958e33ab6c64a66, type: 3}
        m_Scale: {x: 1, y: 1}
        m_Offset: {x: 0, y: 0}
    m_Floats:
    - _CameraPixelHeight: 91
    - _CameraTangent: 1.1547005
    - _OneOverCameraPixelHeight: 0.010989011
    m_Colors:
    - _CameraDownVector: {r: -0, g: -1, b: -0, a: 0}
    - _CameraRightVector: {r: 1, g: 0, b: 0, a: 0}
    - _GlowTintColor: {r: 1, g: 0.9006896, b: 0.100000024, a: 1}
    - _TintColor: {r: 1, g: 1, b: 1, a: 1}
