%YAML 1.1
%TAG !u! tag:unity3d.com,2011:
--- !u!29 &1
OcclusionCullingSettings:
  m_ObjectHideFlags: 0
  serializedVersion: 2
  m_OcclusionBakeSettings:
    smallestOccluder: 5
    smallestHole: 0.25
    backfaceThreshold: 100
  m_SceneGUID: 00000000000000000000000000000000
  m_OcclusionCullingData: {fileID: 0}
--- !u!104 &2
RenderSettings:
  m_ObjectHideFlags: 0
  serializedVersion: 9
  m_Fog: 0
  m_FogColor: {r: 0.5, g: 0.5, b: 0.5, a: 1}
  m_FogMode: 3
  m_FogDensity: 0.01
  m_LinearFogStart: 0
  m_LinearFogEnd: 300
  m_AmbientSkyColor: {r: 0.7794118, g: 0.7794118, b: 0.7794118, a: 0}
  m_AmbientEquatorColor: {r: 0.114, g: 0.125, b: 0.133, a: 1}
  m_AmbientGroundColor: {r: 0.047, g: 0.043, b: 0.035, a: 1}
  m_AmbientIntensity: 1
  m_AmbientMode: 3
  m_SubtractiveShadowColor: {r: 0.42, g: 0.478, b: 0.627, a: 1}
  m_SkyboxMaterial: {fileID: 0}
  m_HaloStrength: 0.5
  m_FlareStrength: 1
  m_FlareFadeSpeed: 3
  m_HaloTexture: {fileID: 0}
  m_SpotCookie: {fileID: 10001, guid: 0000000000000000e000000000000000, type: 0}
  m_DefaultReflectionMode: 0
  m_DefaultReflectionResolution: 128
  m_ReflectionBounces: 1
  m_ReflectionIntensity: 1
  m_CustomReflection: {fileID: 0}
  m_Sun: {fileID: 0}
  m_IndirectSpecularColor: {r: 0, g: 0, b: 0, a: 1}
  m_UseRadianceAmbientProbe: 0
--- !u!157 &4
LightmapSettings:
  m_ObjectHideFlags: 0
  serializedVersion: 11
  m_GIWorkflowMode: 0
  m_GISettings:
    serializedVersion: 2
    m_BounceScale: 1
    m_IndirectOutputScale: 1
    m_AlbedoBoost: 1
    m_TemporalCoherenceThreshold: 1
    m_EnvironmentLightingMode: 0
    m_EnableBakedLightmaps: 1
    m_EnableRealtimeLightmaps: 1
  m_LightmapEditorSettings:
    serializedVersion: 10
    m_Resolution: 2
    m_BakeResolution: 40
    m_AtlasSize: 1024
    m_AO: 0
    m_AOMaxDistance: 1
    m_CompAOExponent: 0
    m_CompAOExponentDirect: 0
    m_Padding: 2
    m_LightmapParameters: {fileID: 0}
    m_LightmapsBakeMode: 1
    m_TextureCompression: 1
    m_FinalGather: 0
    m_FinalGatherFiltering: 1
    m_FinalGatherRayCount: 1024
    m_ReflectionCompression: 2
    m_MixedBakeMode: 1
    m_BakeBackend: 0
    m_PVRSampling: 1
    m_PVRDirectSampleCount: 32
    m_PVRSampleCount: 500
    m_PVRBounces: 2
    m_PVRFilterTypeDirect: 0
    m_PVRFilterTypeIndirect: 0
    m_PVRFilterTypeAO: 0
    m_PVRFilteringMode: 1
    m_PVRCulling: 1
    m_PVRFilteringGaussRadiusDirect: 1
    m_PVRFilteringGaussRadiusIndirect: 5
    m_PVRFilteringGaussRadiusAO: 2
    m_PVRFilteringAtrousPositionSigmaDirect: 0.5
    m_PVRFilteringAtrousPositionSigmaIndirect: 2
    m_PVRFilteringAtrousPositionSigmaAO: 1
    m_ShowResolutionOverlay: 1
  m_LightingDataAsset: {fileID: 0}
  m_UseShadowmask: 0
--- !u!196 &5
NavMeshSettings:
  serializedVersion: 2
  m_ObjectHideFlags: 0
  m_BuildSettings:
    serializedVersion: 2
    agentTypeID: 0
    agentRadius: 0.5
    agentHeight: 2
    agentSlope: 45
    agentClimb: 0.4
    ledgeDropHeight: 0
    maxJumpAcrossDistance: 0
    minRegionArea: 2
    manualCellSize: 0
    cellSize: 0.16666667
    manualTileSize: 0
    tileSize: 256
    accuratePlacement: 0
    debug:
      m_Flags: 0
  m_NavMeshData: {fileID: 0}
--- !u!1001 &513310009
Prefab:
  m_ObjectHideFlags: 0
  serializedVersion: 2
  m_Modification:
    m_TransformParent: {fileID: 0}
    m_Modifications:
    - target: {fileID: 403478, guid: dd8d7aa439548e445a44b9ffb9757cac, type: 2}
      propertyPath: m_LocalPosition.x
      value: 22
      objectReference: {fileID: 0}
    - target: {fileID: 403478, guid: dd8d7aa439548e445a44b9ffb9757cac, type: 2}
      propertyPath: m_LocalPosition.y
      value: 11
      objectReference: {fileID: 0}
    - target: {fileID: 403478, guid: dd8d7aa439548e445a44b9ffb9757cac, type: 2}
      propertyPath: m_LocalPosition.z
      value: 10
      objectReference: {fileID: 0}
    - target: {fileID: 403478, guid: dd8d7aa439548e445a44b9ffb9757cac, type: 2}
      propertyPath: m_LocalRotation.x
      value: 0
      objectReference: {fileID: 0}
    - target: {fileID: 403478, guid: dd8d7aa439548e445a44b9ffb9757cac, type: 2}
      propertyPath: m_LocalRotation.y
      value: 0
      objectReference: {fileID: 0}
    - target: {fileID: 403478, guid: dd8d7aa439548e445a44b9ffb9757cac, type: 2}
      propertyPath: m_LocalRotation.z
      value: 0
      objectReference: {fileID: 0}
    - target: {fileID: 403478, guid: dd8d7aa439548e445a44b9ffb9757cac, type: 2}
      propertyPath: m_LocalRotation.w
      value: 1
      objectReference: {fileID: 0}
    - target: {fileID: 403478, guid: dd8d7aa439548e445a44b9ffb9757cac, type: 2}
      propertyPath: m_RootOrder
      value: 3
      objectReference: {fileID: 0}
    - target: {fileID: 166068, guid: dd8d7aa439548e445a44b9ffb9757cac, type: 2}
      propertyPath: m_Name
      value: LightningEnd
      objectReference: {fileID: 0}
    - target: {fileID: 166068, guid: dd8d7aa439548e445a44b9ffb9757cac, type: 2}
      propertyPath: m_IsActive
      value: 1
      objectReference: {fileID: 0}
    m_RemovedComponents: []
  m_SourcePrefab: {fileID: 100100000, guid: dd8d7aa439548e445a44b9ffb9757cac, type: 2}
  m_RootGameObject: {fileID: 513310010}
  m_IsPrefabAsset: 0
--- !u!1 &513310010
GameObject:
  m_ObjectHideFlags: 0
  m_CorrespondingSourceObject: {fileID: 166068, guid: dd8d7aa439548e445a44b9ffb9757cac,
    type: 2}
  m_PrefabInternal: {fileID: 513310009}
  serializedVersion: 6
  m_Component:
  - component: {fileID: 513310013}
  - component: {fileID: 513310012}
  - component: {fileID: 513310011}
  m_Layer: 0
  m_Name: LightningEnd
  m_TagString: Untagged
  m_Icon: {fileID: 0}
  m_NavMeshLayer: 0
  m_StaticEditorFlags: 0
  m_IsActive: 1
--- !u!23 &513310011
MeshRenderer:
  m_ObjectHideFlags: 0
  m_CorrespondingSourceObject: {fileID: 2307992, guid: dd8d7aa439548e445a44b9ffb9757cac,
    type: 2}
  m_PrefabInternal: {fileID: 513310009}
  m_GameObject: {fileID: 513310010}
  m_Enabled: 1
  m_CastShadows: 0
  m_ReceiveShadows: 0
  m_DynamicOccludee: 1
  m_MotionVectors: 1
  m_LightProbeUsage: 0
  m_ReflectionProbeUsage: 0
  m_RenderingLayerMask: 4294967295
  m_Materials:
  - {fileID: 2100000, guid: 9325ceb97563c8d48a5d19303265de4e, type: 2}
  m_StaticBatchInfo:
    firstSubMesh: 0
    subMeshCount: 0
  m_StaticBatchRoot: {fileID: 0}
  m_ProbeAnchor: {fileID: 0}
  m_LightProbeVolumeOverride: {fileID: 0}
  m_ScaleInLightmap: 1
  m_PreserveUVs: 1
  m_IgnoreNormalsForChartDetection: 0
  m_ImportantGI: 0
  m_StitchLightmapSeams: 0
  m_SelectedEditorRenderState: 3
  m_MinimumChartSize: 4
  m_AutoUVMaxDistance: 0.5
  m_AutoUVMaxAngle: 89
  m_LightmapParameters: {fileID: 0}
  m_SortingLayerID: 0
  m_SortingLayer: 0
  m_SortingOrder: 0
--- !u!33 &513310012
MeshFilter:
  m_ObjectHideFlags: 0
  m_CorrespondingSourceObject: {fileID: 3375984, guid: dd8d7aa439548e445a44b9ffb9757cac,
    type: 2}
  m_PrefabInternal: {fileID: 513310009}
  m_GameObject: {fileID: 513310010}
  m_Mesh: {fileID: 10202, guid: 0000000000000000e000000000000000, type: 0}
--- !u!4 &513310013
Transform:
  m_ObjectHideFlags: 0
  m_CorrespondingSourceObject: {fileID: 403478, guid: dd8d7aa439548e445a44b9ffb9757cac,
    type: 2}
  m_PrefabInternal: {fileID: 513310009}
  m_GameObject: {fileID: 513310010}
  m_LocalRotation: {x: 0, y: 0, z: 0, w: 1}
  m_LocalPosition: {x: 22, y: 11, z: 10}
  m_LocalScale: {x: 1, y: 1, z: 1}
  m_Children: []
  m_Father: {fileID: 0}
  m_RootOrder: 3
  m_LocalEulerAnglesHint: {x: 0, y: 0, z: 0}
--- !u!1 &591820180
GameObject:
  m_ObjectHideFlags: 0
  m_CorrespondingSourceObject: {fileID: 0}
  m_PrefabInternal: {fileID: 0}
  serializedVersion: 6
  m_Component:
  - component: {fileID: 591820185}
  - component: {fileID: 591820184}
  - component: {fileID: 591820183}
  - component: {fileID: 591820182}
  - component: {fileID: 591820181}
  - component: {fileID: 591820186}
  m_Layer: 0
  m_Name: Main Camera
  m_TagString: MainCamera
  m_Icon: {fileID: 0}
  m_NavMeshLayer: 0
  m_StaticEditorFlags: 0
  m_IsActive: 1
--- !u!81 &591820181
AudioListener:
  m_ObjectHideFlags: 0
  m_CorrespondingSourceObject: {fileID: 0}
  m_PrefabInternal: {fileID: 0}
  m_GameObject: {fileID: 591820180}
  m_Enabled: 1
--- !u!124 &591820182
Behaviour:
  m_ObjectHideFlags: 0
  m_CorrespondingSourceObject: {fileID: 0}
  m_PrefabInternal: {fileID: 0}
  m_GameObject: {fileID: 591820180}
  m_Enabled: 1
--- !u!92 &591820183
Behaviour:
  m_ObjectHideFlags: 0
  m_CorrespondingSourceObject: {fileID: 0}
  m_PrefabInternal: {fileID: 0}
  m_GameObject: {fileID: 591820180}
  m_Enabled: 1
--- !u!20 &591820184
Camera:
  m_ObjectHideFlags: 0
  m_CorrespondingSourceObject: {fileID: 0}
  m_PrefabInternal: {fileID: 0}
  m_GameObject: {fileID: 591820180}
  m_Enabled: 1
  serializedVersion: 2
  m_ClearFlags: 2
  m_BackGroundColor: {r: 0.19852942, g: 0.19852942, b: 0.19852942, a: 0}
  m_projectionMatrixMode: 1
  m_SensorSize: {x: 36, y: 24}
  m_LensShift: {x: 0, y: 0}
  m_FocalLength: 50
  m_NormalizedViewPortRect:
    serializedVersion: 2
    x: 0
    y: 0
    width: 1
    height: 1
  near clip plane: 0.3
  far clip plane: 5000
  field of view: 60
  orthographic: 0
  orthographic size: 5
  m_Depth: -1
  m_CullingMask:
    serializedVersion: 2
    m_Bits: 4294967295
  m_RenderingPath: -1
  m_TargetTexture: {fileID: 0}
  m_TargetDisplay: 0
  m_TargetEye: 3
  m_HDR: 0
  m_AllowMSAA: 1
  m_AllowDynamicResolution: 0
  m_ForceIntoRT: 0
  m_OcclusionCulling: 1
  m_StereoConvergence: 10
  m_StereoSeparation: 0.022
--- !u!4 &591820185
Transform:
  m_ObjectHideFlags: 0
  m_CorrespondingSourceObject: {fileID: 0}
  m_PrefabInternal: {fileID: 0}
  m_GameObject: {fileID: 591820180}
  m_LocalRotation: {x: 0, y: 0, z: 0, w: 1}
  m_LocalPosition: {x: 0, y: 1, z: -30}
  m_LocalScale: {x: 1, y: 1, z: 1}
  m_Children: []
  m_Father: {fileID: 0}
  m_RootOrder: 0
  m_LocalEulerAnglesHint: {x: 0, y: 0, z: 0}
--- !u!114 &591820186
MonoBehaviour:
  m_ObjectHideFlags: 0
  m_CorrespondingSourceObject: {fileID: 0}
  m_PrefabInternal: {fileID: 0}
  m_GameObject: {fileID: 591820180}
  m_Enabled: 1
  m_EditorHideFlags: 0
  m_Script: {fileID: 11500000, guid: b7e887b868f5fff47bfdb10dba3bf0b0, type: 3}
  m_Name: 
  m_EditorClassIdentifier: 
  ThunderAndLightningScript: {fileID: 0}
  LightningBoltScript: {fileID: 0}
  CloudParticleSystem: {fileID: 0}
  MoveSpeed: 10
  EnableMouseLook: 0
--- !u!1 &727482625
GameObject:
  m_ObjectHideFlags: 0
  m_CorrespondingSourceObject: {fileID: 166068, guid: dd8d7aa439548e445a44b9ffb9757cac,
    type: 2}
  m_PrefabInternal: {fileID: 2116698974}
  serializedVersion: 6
  m_Component:
  - component: {fileID: 727482628}
  - component: {fileID: 727482627}
  - component: {fileID: 727482626}
  m_Layer: 0
  m_Name: LightningStart
  m_TagString: Untagged
  m_Icon: {fileID: 0}
  m_NavMeshLayer: 0
  m_StaticEditorFlags: 0
  m_IsActive: 1
--- !u!23 &727482626
MeshRenderer:
  m_ObjectHideFlags: 0
  m_CorrespondingSourceObject: {fileID: 2307992, guid: dd8d7aa439548e445a44b9ffb9757cac,
    type: 2}
  m_PrefabInternal: {fileID: 2116698974}
  m_GameObject: {fileID: 727482625}
  m_Enabled: 1
  m_CastShadows: 0
  m_ReceiveShadows: 0
  m_DynamicOccludee: 1
  m_MotionVectors: 1
  m_LightProbeUsage: 0
  m_ReflectionProbeUsage: 0
  m_RenderingLayerMask: 4294967295
  m_Materials:
  - {fileID: 2100000, guid: 9325ceb97563c8d48a5d19303265de4e, type: 2}
  m_StaticBatchInfo:
    firstSubMesh: 0
    subMeshCount: 0
  m_StaticBatchRoot: {fileID: 0}
  m_ProbeAnchor: {fileID: 0}
  m_LightProbeVolumeOverride: {fileID: 0}
  m_ScaleInLightmap: 1
  m_PreserveUVs: 1
  m_IgnoreNormalsForChartDetection: 0
  m_ImportantGI: 0
  m_StitchLightmapSeams: 0
  m_SelectedEditorRenderState: 3
  m_MinimumChartSize: 4
  m_AutoUVMaxDistance: 0.5
  m_AutoUVMaxAngle: 89
  m_LightmapParameters: {fileID: 0}
  m_SortingLayerID: 0
  m_SortingLayer: 0
  m_SortingOrder: 0
--- !u!33 &727482627
MeshFilter:
  m_ObjectHideFlags: 0
  m_CorrespondingSourceObject: {fileID: 3375984, guid: dd8d7aa439548e445a44b9ffb9757cac,
    type: 2}
  m_PrefabInternal: {fileID: 2116698974}
  m_GameObject: {fileID: 727482625}
  m_Mesh: {fileID: 10202, guid: 0000000000000000e000000000000000, type: 0}
--- !u!4 &727482628
Transform:
  m_ObjectHideFlags: 0
  m_CorrespondingSourceObject: {fileID: 403478, guid: dd8d7aa439548e445a44b9ffb9757cac,
    type: 2}
  m_PrefabInternal: {fileID: 2116698974}
  m_GameObject: {fileID: 727482625}
  m_LocalRotation: {x: 0, y: 0, z: 0, w: 1}
  m_LocalPosition: {x: -16.11, y: -3.58, z: 5}
  m_LocalScale: {x: 1, y: 1, z: 1}
  m_Children: []
  m_Father: {fileID: 0}
  m_RootOrder: 2
  m_LocalEulerAnglesHint: {x: 0, y: 0, z: 0}
--- !u!1 &1063986673
GameObject:
  m_ObjectHideFlags: 0
  m_CorrespondingSourceObject: {fileID: 1520764546740086, guid: c0c356ca5fe9b1443b4b8759ed02eb2f,
    type: 2}
  m_PrefabInternal: {fileID: 1195067195}
  serializedVersion: 6
  m_Component:
  - component: {fileID: 1063986674}
  m_Layer: 0
  m_Name: LightningStart
  m_TagString: Untagged
  m_Icon: {fileID: 0}
  m_NavMeshLayer: 0
  m_StaticEditorFlags: 0
  m_IsActive: 1
--- !u!4 &1063986674
Transform:
  m_ObjectHideFlags: 0
  m_CorrespondingSourceObject: {fileID: 4676513241289062, guid: c0c356ca5fe9b1443b4b8759ed02eb2f,
    type: 2}
  m_PrefabInternal: {fileID: 1195067195}
  m_GameObject: {fileID: 1063986673}
  m_LocalRotation: {x: 0, y: 0, z: 0, w: 1}
  m_LocalPosition: {x: -1, y: -1, z: 0}
  m_LocalScale: {x: 1, y: 1, z: 1}
  m_Children: []
  m_Father: {fileID: 1390252035}
  m_RootOrder: 0
  m_LocalEulerAnglesHint: {x: 0, y: 0, z: 0}
--- !u!1001 &1195067195
Prefab:
  m_ObjectHideFlags: 0
  serializedVersion: 2
  m_Modification:
    m_TransformParent: {fileID: 0}
    m_Modifications:
    - target: {fileID: 460870, guid: c0c356ca5fe9b1443b4b8759ed02eb2f, type: 2}
      propertyPath: m_LocalPosition.x
      value: 0
      objectReference: {fileID: 0}
    - target: {fileID: 460870, guid: c0c356ca5fe9b1443b4b8759ed02eb2f, type: 2}
      propertyPath: m_LocalPosition.y
      value: 0
      objectReference: {fileID: 0}
    - target: {fileID: 460870, guid: c0c356ca5fe9b1443b4b8759ed02eb2f, type: 2}
      propertyPath: m_LocalPosition.z
      value: 0
      objectReference: {fileID: 0}
    - target: {fileID: 460870, guid: c0c356ca5fe9b1443b4b8759ed02eb2f, type: 2}
      propertyPath: m_LocalRotation.x
      value: 0
      objectReference: {fileID: 0}
    - target: {fileID: 460870, guid: c0c356ca5fe9b1443b4b8759ed02eb2f, type: 2}
      propertyPath: m_LocalRotation.y
      value: 0
      objectReference: {fileID: 0}
    - target: {fileID: 460870, guid: c0c356ca5fe9b1443b4b8759ed02eb2f, type: 2}
      propertyPath: m_LocalRotation.z
      value: 0
      objectReference: {fileID: 0}
    - target: {fileID: 460870, guid: c0c356ca5fe9b1443b4b8759ed02eb2f, type: 2}
      propertyPath: m_LocalRotation.w
      value: 1
      objectReference: {fileID: 0}
    - target: {fileID: 460870, guid: c0c356ca5fe9b1443b4b8759ed02eb2f, type: 2}
      propertyPath: m_RootOrder
      value: 1
      objectReference: {fileID: 0}
    - target: {fileID: 11423590, guid: c0c356ca5fe9b1443b4b8759ed02eb2f, type: 2}
      propertyPath: Source
      value: 
      objectReference: {fileID: 727482625}
    - target: {fileID: 11423590, guid: c0c356ca5fe9b1443b4b8759ed02eb2f, type: 2}
      propertyPath: Destination
      value: 
      objectReference: {fileID: 513310010}
    m_RemovedComponents: []
  m_SourcePrefab: {fileID: 100100000, guid: c0c356ca5fe9b1443b4b8759ed02eb2f, type: 2}
  m_RootGameObject: {fileID: 1390252033}
  m_IsPrefabAsset: 0
--- !u!1 &1390252033
GameObject:
  m_ObjectHideFlags: 0
  m_CorrespondingSourceObject: {fileID: 198392, guid: c0c356ca5fe9b1443b4b8759ed02eb2f,
    type: 2}
  m_PrefabInternal: {fileID: 1195067195}
  serializedVersion: 6
  m_Component:
  - component: {fileID: 1390252035}
  - component: {fileID: 1390252034}
  m_Layer: 0
  m_Name: LightningBoltPrefab
  m_TagString: Untagged
  m_Icon: {fileID: 0}
  m_NavMeshLayer: 0
  m_StaticEditorFlags: 0
  m_IsActive: 1
--- !u!114 &1390252034
MonoBehaviour:
  m_ObjectHideFlags: 0
  m_CorrespondingSourceObject: {fileID: 11423590, guid: c0c356ca5fe9b1443b4b8759ed02eb2f,
    type: 2}
  m_PrefabInternal: {fileID: 1195067195}
  m_GameObject: {fileID: 1390252033}
  m_Enabled: 1
  m_EditorHideFlags: 0
  m_Script: {fileID: 11500000, guid: 73e36b9ad63e5de4391fbd5982a475c1, type: 3}
  m_Name: 
  m_EditorClassIdentifier: 
  Camera: {fileID: 0}
  CameraMode: 0
  UseWorldSpace: 1
  CompensateForParentTransform: 0
  QualitySetting: 0
  MultiThreaded: 0
  LevelOfDetailDistance: 0
  SortLayerName: 
  SortOrderInLayer: 0
  SoftParticlesFactor: 3
  RenderQueue: -1
  LightningMaterialMesh: {fileID: 2100000, guid: c6b8576004384974191b466f0bdef64b,
    type: 2}
  LightningMaterialMeshNoGlow: {fileID: 2100000, guid: db76dde8469c5834887c024ae9f43289,
    type: 2}
  LightningTexture: {fileID: 2800000, guid: 51e598d31382bd740958e33ab6c64a66, type: 3}
  LightningGlowTexture: {fileID: 2800000, guid: cab73e4c670527a4aae0af0c436a4350,
    type: 3}
  LightningOriginParticleSystem: {fileID: 0}
  LightningDestinationParticleSystem: {fileID: 0}
  LightningTintColor: {r: 1, g: 1, b: 1, a: 1}
  GlowTintColor: {r: 0, g: 0.111111164, b: 1, a: 1}
  SourceBlendMode: 5
  DestinationBlendMode: 1
  JitterMultiplier: 0.1
  Turbulence: 0.05
  TurbulenceVelocity: {x: 0, y: 0, z: 0}
  IntensityFlicker: {x: 1, y: 1, z: 1, w: 0}
  IntensityFlickerTexture: {fileID: 0}
  IntervalRange:
    Minimum: 0.05
    Maximum: 0.1
  CountRange:
    Minimum: 1
    Maximum: 3
  CountProbabilityModifier: 1
  DelayRange:
    Minimum: 0
    Maximum: 0
  DurationRange:
    Minimum: 0.08
    Maximum: 0.15
  TrunkWidthRange:
    Minimum: 0.075
    Maximum: 0.15
  LifeTime: 0
  Generations: 6
  ChaosFactor: 0.15
  ChaosFactorForks: 0.095
  Intensity: 1
  GlowIntensity: 0.226
  GlowWidthMultiplier: 5.5
  FadePercent: 0.3
  FadeInMultiplier: 1
  FadeFullyLitMultiplier: 1
  FadeOutMultiplier: 1
  GrowthMultiplier: 0
  EndWidthMultiplier: 0.8
  Forkedness: 0
  ForkLengthMultiplier: 0.6
  ForkLengthVariance: 0.2
  ForkEndWidthMultiplier: 1
  LightParameters:
    RenderMode: 0
    LightColor: {r: 1, g: 1, b: 1, a: 1}
    LightPercent: 0.001
    LightShadowPercent: 0
    LightIntensity: 0.5
    BounceIntensity: 0
    ShadowStrength: 1
    ShadowBias: 0.05
    ShadowNormalBias: 0.4
    LightRange: 0
    CullingMask:
      serializedVersion: 2
      m_Bits: 4294967295
    OrthographicOffset: 0
    FadeInMultiplier: 1
    FadeFullyLitMultiplier: 1
    FadeOutMultiplier: 1
  MaximumLightsPerBatch: 8
  ManualMode: 0
  AutomaticModeSeconds: 0
  CustomTransformHandler:
    m_PersistentCalls:
      m_Calls: []
    m_TypeName: DigitalRuby.ThunderAndLightning.LightningCustomTransformDelegate,
      Assembly-CSharp, Version=0.0.0.0, Culture=neutral, PublicKeyToken=null
  Source: {fileID: 727482625}
  Destination: {fileID: 513310010}
  StartVariance: {x: 0, y: 0, z: 0}
  EndVariance: {x: 0, y: 0, z: 0}
--- !u!4 &1390252035
Transform:
  m_ObjectHideFlags: 0
  m_CorrespondingSourceObject: {fileID: 460870, guid: c0c356ca5fe9b1443b4b8759ed02eb2f,
    type: 2}
  m_PrefabInternal: {fileID: 1195067195}
  m_GameObject: {fileID: 1390252033}
  m_LocalRotation: {x: 0, y: 0, z: 0, w: 1}
  m_LocalPosition: {x: 0, y: 0, z: 0}
  m_LocalScale: {x: 1, y: 1, z: 1}
  m_Children:
  - {fileID: 1063986674}
  - {fileID: 1711662124}
  m_Father: {fileID: 0}
  m_RootOrder: 1
  m_LocalEulerAnglesHint: {x: 0, y: 0, z: 0}
--- !u!1 &1711662123
GameObject:
  m_ObjectHideFlags: 0
  m_CorrespondingSourceObject: {fileID: 1274333943885516, guid: c0c356ca5fe9b1443b4b8759ed02eb2f,
    type: 2}
  m_PrefabInternal: {fileID: 1195067195}
  serializedVersion: 6
  m_Component:
  - component: {fileID: 1711662124}
  m_Layer: 0
  m_Name: LightningEnd
  m_TagString: Untagged
  m_Icon: {fileID: 0}
  m_NavMeshLayer: 0
  m_StaticEditorFlags: 0
  m_IsActive: 1
--- !u!4 &1711662124
Transform:
  m_ObjectHideFlags: 0
  m_CorrespondingSourceObject: {fileID: 4655653354755552, guid: c0c356ca5fe9b1443b4b8759ed02eb2f,
    type: 2}
  m_PrefabInternal: {fileID: 1195067195}
  m_GameObject: {fileID: 1711662123}
  m_LocalRotation: {x: 0, y: 0, z: 0, w: 1}
  m_LocalPosition: {x: 1, y: 1, z: 0}
  m_LocalScale: {x: 1, y: 1, z: 1}
  m_Children: []
  m_Father: {fileID: 1390252035}
  m_RootOrder: 1
  m_LocalEulerAnglesHint: {x: 0, y: 0, z: 0}
--- !u!1001 &2116698974
Prefab:
  m_ObjectHideFlags: 0
  serializedVersion: 2
  m_Modification:
    m_TransformParent: {fileID: 0}
    m_Modifications:
    - target: {fileID: 403478, guid: dd8d7aa439548e445a44b9ffb9757cac, type: 2}
      propertyPath: m_LocalPosition.x
      value: -16.1100006
      objectReference: {fileID: 0}
    - target: {fileID: 403478, guid: dd8d7aa439548e445a44b9ffb9757cac, type: 2}
      propertyPath: m_LocalPosition.y
      value: -3.57999992
      objectReference: {fileID: 0}
    - target: {fileID: 403478, guid: dd8d7aa439548e445a44b9ffb9757cac, type: 2}
      propertyPath: m_LocalPosition.z
      value: 5
      objectReference: {fileID: 0}
    - target: {fileID: 403478, guid: dd8d7aa439548e445a44b9ffb9757cac, type: 2}
      propertyPath: m_LocalRotation.x
      value: 0
      objectReference: {fileID: 0}
    - target: {fileID: 403478, guid: dd8d7aa439548e445a44b9ffb9757cac, type: 2}
      propertyPath: m_LocalRotation.y
      value: 0
      objectReference: {fileID: 0}
    - target: {fileID: 403478, guid: dd8d7aa439548e445a44b9ffb9757cac, type: 2}
      propertyPath: m_LocalRotation.z
      value: 0
      objectReference: {fileID: 0}
    - target: {fileID: 403478, guid: dd8d7aa439548e445a44b9ffb9757cac, type: 2}
      propertyPath: m_LocalRotation.w
      value: 1
      objectReference: {fileID: 0}
    - target: {fileID: 403478, guid: dd8d7aa439548e445a44b9ffb9757cac, type: 2}
      propertyPath: m_RootOrder
      value: 2
      objectReference: {fileID: 0}
    - target: {fileID: 166068, guid: dd8d7aa439548e445a44b9ffb9757cac, type: 2}
      propertyPath: m_Name
      value: LightningStart
      objectReference: {fileID: 0}
    - target: {fileID: 166068, guid: dd8d7aa439548e445a44b9ffb9757cac, type: 2}
      propertyPath: m_IsActive
      value: 1
      objectReference: {fileID: 0}
    m_RemovedComponents: []
  m_SourcePrefab: {fileID: 100100000, guid: dd8d7aa439548e445a44b9ffb9757cac, type: 2}
  m_RootGameObject: {fileID: 727482625}
  m_IsPrefabAsset: 0
