%YAML 1.1
%TAG !u! tag:unity3d.com,2011:
--- !u!78 &1
TagManager:
  serializedVersion: 2
  tags:
  - FxTemporaire
  - StartBelt
  - Lot
  - MoneyTrigger
  - RecycleBox
  layers:
  - Default
  - TransparentFX
  - Ignore Raycast
  - 
  - Water
  - UI
  - 
  - 
  - NoCollision
  - MoneyTrigger
  - 
  - 
  - 
  - 
  - 
  - 
  - 
  - 
  - 
  - 
  - 
  - 
  - 
  - 
  - 
  - 
  - 
  - 
  - 
  - 
  - 
  - 
  m_SortingLayers:
  - name: Default
    uniqueID: 0
    locked: 0
  - name: New Layer
    uniqueID: 1228555391
    locked: 0
  - name: effectLow
    uniqueID: 1207455375
    locked: 0
  - name: Lot
    uniqueID: 2251460645
    locked: 0
  - name: New Layer
    uniqueID: 2849817285
    locked: 0
  - name: New Layer
    uniqueID: 3211039633
    locked: 0
  - name: Plane
    uniqueID: 2416428471
    locked: 0
  - name: New Layer
    uniqueID: 883265321
    locked: 0
  - name: EffectHigh
    uniqueID: 3948583533
    locked: 0
  - name: New Layer
    uniqueID: 602724911
    locked: 0
  - name: SceneButton
    uniqueID: 1062028107
    locked: 0
  - name: New Layer
    uniqueID: 4040844949
    locked: 0
  - name: BigMap
    uniqueID: 3652010485
    locked: 0
  - name: MostHigh3
    uniqueID: 3362946505
    locked: 0
  - name: MostHigh2
    uniqueID: 1747476041
    locked: 0
  - name: MostHigh
    uniqueID: 2219143665
    locked: 0
